<?xml version="1.0" encoding="UTF-8" standalone="no"?>
<svg
   xmlns:dc="http://purl.org/dc/elements/1.1/"
   xmlns:cc="http://creativecommons.org/ns#"
   xmlns:rdf="http://www.w3.org/1999/02/22-rdf-syntax-ns#"
   xmlns:svg="http://www.w3.org/2000/svg"
   xmlns="http://www.w3.org/2000/svg"
   xmlns:sodipodi="http://sodipodi.sourceforge.net/DTD/sodipodi-0.dtd"
   xmlns:inkscape="http://www.inkscape.org/namespaces/inkscape"
   height="540.22516"
   width="541.78528"
   version="1.1"
   id="svg12"
   sodipodi:docname="codewars.svg"
   inkscape:version="1.0.1 (3bc2e813f5, 2020-09-07)">
  <metadata
     id="metadata18">
    <rdf:RDF>
      <cc:Work
         rdf:about="">
        <dc:format>image/svg+xml</dc:format>
        <dc:type
           rdf:resource="http://purl.org/dc/dcmitype/StillImage" />
        <dc:title></dc:title>
      </cc:Work>
    </rdf:RDF>
  </metadata>
  <defs
     id="defs16" />
  <sodipodi:namedview
     pagecolor="#ffffff"
     bordercolor="#666666"
     borderopacity="1"
     objecttolerance="10"
     gridtolerance="10"
     guidetolerance="10"
     inkscape:pageopacity="0"
     inkscape:pageshadow="2"
     inkscape:window-width="1852"
     inkscape:window-height="1011"
     id="namedview14"
     showgrid="false"
     fit-margin-top="0"
     fit-margin-left="0"
     fit-margin-right="0"
     fit-margin-bottom="0"
     inkscape:zoom="0.92531759"
     inkscape:cx="122.29259"
     inkscape:cy="182.53472"
     inkscape:window-x="68"
     inkscape:window-y="32"
     inkscape:window-maximized="1"
     inkscape:current-layer="svg12" />
  <path
     id="rect20"
     style="fill:black;fill-rule:evenodd;stroke-width:0.922732"
     d="M 236.1485,9.7088268e-6 A 24.2,24.2 0 0 0 213.21491,16.539073 a 26.6,26.6 0 0 0 -45.40039,15.5 29.3,29.3 0 0 0 -12.59961,-3.09961 c -16.2,-0.5 -29.70117,12.401171 -30.20117,28.701171 a 29.4,29.4 0 0 0 1.60156,10.09961 35.7,35.7 0 0 0 -38.701165,31.40039 35.6,35.6 0 0 0 0.70117,12.099606 c -4.6,0.8 -8.90156,3.49922 -11.60156,7.69922 a 17.1,17.1 0 0 0 -2.59961,7.5 21,21 0 0 0 -28.99414,22.38867 24.2,24.2 0 0 1 0.0937,0.0117 l 0.10156,1.09961 a 21,21 0 0 1 -0.19531,-1.11133 24.2,24.2 0 0 0 -21.505861,39.61133 26.6,26.6 0 0 0 -10,47 29.3,29.3 0 0 0 -9.2988281,9.09961 29.5,29.5 0 0 0 9.0000001,40.70117 29.4,29.4 0 0 0 9.398438,3.90039 35.7,35.7 0 0 0 7,49.39844 35.5,35.5 0 0 0 13.300831,6.40041 l -0.5,-0.0996 a 17.2,17.2 0 0 0 -0.30078,16.30078 17.1,17.1 0 0 0 5.20117,6 21,21 0 0 0 4.69922,36.29883 24.2,24.2 0 0 0 23.40039,38.59961 26.6,26.6 0 0 0 35.300775,32.40039 29.3,29.3 0 0 0 3.29883,12.59961 29.5,29.5 0 0 0 39.59961,12.80078 29.4,29.4 0 0 0 8.20117,-6.19922 35.7,35.7 0 0 0 46,18.89844 35.5,35.5 0 0 0 16.90039,-14 l -0.10156,0.20117 c 0.8,8.5 7.90156,15.3 16.60156,15.5 a 17.1,17.1 0 0 0 7.79883,-1.70117 21,21 0 0 0 34.09961,13.20117 24.2,24.2 0 0 0 45.10156,-2 26.6,26.6 0 0 0 45.39844,-15.59961 29.4,29.4 0 0 0 12.60156,3.19922 29.5,29.5 0 0 0 30.19922,-28.69922 29.4,29.4 0 0 0 -1.4668,-10.0957 35.7,35.7 0 0 1 -1.0332,-0.10547 h 1 a 29.4,29.4 0 0 1 0.0332,0.10547 35.7,35.7 0 0 0 38.56641,-31.4043 35.6,35.6 0 0 0 -0.59961,-12.20117 c 4.5,-0.7 8.8,-3.39922 11.5,-7.69922 a 17.1,17.1 0 0 0 2.59961,-7.5 21,21 0 0 0 28.80078,-23.40039 21.8,21.8 0 0 1 0.19922,1.09961 24.2,24.2 0 0 0 21.5,-39.69922 c 6.4,-1.6 12.40117,-5.59961 16.20117,-11.59961 a 26.6,26.6 0 0 0 -6.10156,-35.30078 29.3,29.3 0 0 0 9.20117,-9.19922 29.5,29.5 0 0 0 -9,-40.60156 29.4,29.4 0 0 0 -9.40039,-4 35.7,35.7 0 0 0 -6.90039,-49.29883 35.5,35.5 0 0 0 -12.90039,-6.30078 17.2,17.2 0 0 0 0.30078,-16.40039 17.1,17.1 0 0 0 -5.09961,-6 21,21 0 0 0 -4.70117,-36.29883 24.2,24.2 0 0 0 -23.39844,-38.499996 26.6,26.6 0 0 0 -35.40039,-32.5 29.3,29.3 0 0 0 -3.20117,-12.59961 29.5,29.5 0 0 0 -39.69922,-12.80078 29.4,29.4 0 0 0 -8.19922,6.30078 c -7.6,-17.799998 -28,-26.299999 -46,-18.999999 a 35.4,35.4 0 0 0 -16.70312,13.789059 c 3.5e-4,0.003 0.002,0.006 0.002,0.01 l -0.19922,0.30078 a 35.4,35.4 0 0 1 0.19727,-0.31055 c -0.90447,-8.395406 -7.90075,-15.1907 -16.69727,-15.390621 A 17.1,17.1 0 0 0 292.41413,27.640635 21,21 0 0 0 258.31452,14.439463 24.2,24.2 0 0 0 236.1485,9.7088268e-6 Z M 253.51374,41.039073 a 21,21 0 0 0 17.70117,10.601561 21,21 0 0 0 12.19922,-3.5 17.2,17.2 0 0 0 2.90039,5.59961 30,30 0 0 0 -1.59961,0.69922 29.7,29.7 0 0 0 -16,28.20117 27.1,27.1 0 0 0 -14.80078,3 27.3,27.3 0 0 0 -11.69922,36.699216 v 0.0996 a 24.5,24.5 0 0 0 -16.70117,35.20117 24.5,24.5 0 0 0 5.40039,7 20,20 0 0 1 1.58594,-0.69531 19.8,19.8 0 0 0 -10.28516,27.39454 19.7,19.7 0 0 0 9.59961,9 17.8,17.8 0 0 0 8.69922,29.90039 11.3,11.3 0 0 0 -0.0996,10.5 11.2,11.2 0 0 0 3.20117,3.79883 36.2,36.2 0 0 0 -8.10156,16.90039 11.2,11.2 0 0 0 -10.19923,0.40039 c -1.9,-7.7 -8.60039,-13.49922 -16.90039,-13.69922 a 17.7,17.7 0 0 0 -10.19922,3 c -2,-8.6 -9.60078,-15.10078 -18.80078,-15.30078 a 19.8,19.8 0 0 0 -4.19922,0.30078 24.7,24.7 0 0 0 0.29883,-3.70117 24.5,24.5 0 0 0 -22,-25.09961 27.2,27.2 0 0 0 1.90039,-9 c 0.2,-10.5 -5.4,-19.7 -14,-24.5 a 29.6,29.6 0 0 0 6.20117,-17.40039 c 0.2,-8.3 -2.90117,-15.79883 -8.20117,-21.29883 a 35.7,35.7 0 0 0 19.40039,-27.70117 35.5,35.5 0 0 0 -3.30078,-19.699216 29.4,29.4 0 0 0 28.40039,-28 26.5,26.5 0 0 0 9.70117,2 26.6,26.6 0 0 0 26.39844,-19.59961 24,24 0 0 0 15.60156,6.19922 24.1,24.1 0 0 0 17.79883,-7.199219 z m 122.40039,40.500001 a 29.4,29.4 0 0 0 38.20117,11.5 26.6,26.6 0 0 0 2.79883,9.601556 26.6,26.6 0 0 0 29.90039,13.69922 24,24 0 0 0 2,16.69922 c 3.2,6.2 8.60078,10.40117 14.80078,12.20117 a 21,21 0 0 0 -0.80078,20.59961 21,21 0 0 0 8.90039,9 17.2,17.2 0 0 0 -2.20117,2.90039 29.7,29.7 0 0 0 -5.59961,-4.59961 c -10.2,-6.6 -23,-6.00156 -32.5,0.39844 a 27.1,27.1 0 0 0 -10,-11.29883 27.3,27.3 0 0 0 -37.69922,8.40039 24.5,24.5 0 0 0 -4.80078,-4.10156 24.5,24.5 0 0 0 -34,7.5 24.5,24.5 0 0 0 -3.40039,8.20117 c -9.2,-5.9 -21.39922,-3.2 -27.19922,6 a 19.7,19.7 0 0 0 -3,12.79883 17.8,17.8 0 0 0 -21.30078,22.70117 11.3,11.3 0 0 0 -9.09961,5.19922 11.3,11.3 0 0 0 -1.5,3.80078 36.3,36.3 0 0 0 -18,0.40039 c -0.2,-0.9 -0.5,-1.80117 -1,-2.70117 a 11.2,11.2 0 0 0 -4.09961,-4.40039 c 6,-5.3 7.8,-13.99883 4,-21.29883 a 17.7,17.7 0 0 0 -7.5,-7.59961 c 6.6,-5.8 8.7,-15.60078 4.5,-23.80078 a 19.8,19.8 0 0 0 -2.30078,-3.5 24.7,24.7 0 0 0 3.40039,-1.5 c 11.5,-5.9 16.4,-19.60078 11.5,-31.30078 a 27.2,27.2 0 0 0 8.80078,-2.79883 27.3,27.3 0 0 0 14.79883,-23.80078 29.6,29.6 0 0 0 18.30078,-3 29.7,29.7 0 0 0 14.80078,-17.699216 v 0.29883 a 35.7,35.7 0 0 0 33.59961,3.80078 35.5,35.5 0 0 0 15.69922,-12.30078 z M 87.314525,144.83985 a 17.4,17.4 0 0 0 2.69922,0.5 29.7,29.7 0 0 0 -1.79883,9.59961 29.7,29.7 0 0 0 17.099605,27.70117 27.1,27.1 0 0 0 -4.5,14.29883 c -0.4,15.1 11.59961,27.60039 26.59961,27.90039 h 0.0996 a 24.5,24.5 0 0 0 22.90039,31.5 24.5,24.5 0 0 0 8.80078,-1.30078 c -0.3,10.9 8.29922,20.00117 19.19922,20.20117 a 19.7,19.7 0 0 0 12.59961,-4 17.8,17.8 0 0 0 30.30078,6.5 11.3,11.3 0 0 0 9.19922,5.09961 11.2,11.2 0 0 0 6.70117,-2 v 0.19922 a 36.4,36.4 0 0 0 9.59961,14 11.2,11.2 0 0 0 -6.59961,10 c -7.39999,-2.4 -15.90038,0.30078 -20.40038,7.30078 a 17.7,17.7 0 0 0 -2.69922,10.19922 c -8.4,-2.7 -17.80078,0.40117 -22.80078,8.20117 a 19.8,19.8 0 0 0 -1.90039,3.79883 24.6,24.6 0 0 0 -3,-2.29883 c -10.8,-7 -25.19883,-4.2 -32.79883,6 a 27.2,27.2 0 0 0 -6.90039,-6.20117 27.3,27.3 0 0 0 -28.09961,-0.79883 29.6,29.6 0 0 0 -11.70117,-14.20117 c -7,-4.5 -14.999995,-5.7 -22.499995,-4 a 35.7,35.7 0 0 0 -13.69922,-30.89844 35.5,35.5 0 0 0 -18.5,-7.40039 29.4,29.4 0 0 0 -9.40039,-38.80078 26.5,26.5 0 0 0 6.80078,-7.19922 c 6.8,-10.6 5.09883,-24.10078 -3.20117,-32.80078 a 24,24 0 0 0 13.40039,-10.09961 c 3.7,-5.9 4.6,-12.7 3,-19 a 21,21 0 0 0 18.19922,-9.69922 21,21 0 0 0 3.30078,-12.30078 z m 297.900385,57.09961 a 27.2,27.2 0 0 0 6.90039,6.30078 27.3,27.3 0 0 0 28.09961,0.69922 29.6,29.6 0 0 0 11.79883,14.30078 c 6.9,4.5 15.00039,5.60039 22.40039,3.90039 a 35.7,35.7 0 0 0 13.70117,31 h 0.0996 a 35.5,35.5 0 0 0 18.59962,7.29883 29.4,29.4 0 0 0 9.40039,38.90039 26.5,26.5 0 0 0 -6.90039,7.19922 26.6,26.6 0 0 0 3.30078,32.80078 24,24 0 0 0 -13.5,10 24.1,24.1 0 0 0 -3,19 21,21 0 0 0 -18.20117,9.69922 21,21 0 0 0 -3.29883,12.30078 l -2.70117,-0.5 -0.0996,0.19922 a 29.7,29.7 0 0 0 2,-9.69922 29.7,29.7 0 0 0 -17.30078,-27.69922 27.1,27.1 0 0 0 4.5,-14.30078 c 0.4,-15.1 -11.49961,-27.6 -26.59961,-28 a 24.6,24.6 0 0 0 1,-6.30078 24.5,24.5 0 0 0 -24,-25.19922 24.5,24.5 0 0 0 -8.69922,1.40039 l -0.0117,0.11914 a 19.8,19.8 0 0 1 -0.18945,1.78125 l 0.18945,-1.78125 a 19.8,19.8 0 0 0 0.0117,-0.21875 c 0.2,-10.9 -8.30078,-20.00117 -19.30078,-20.20117 a 19.7,19.7 0 0 0 -12.5,4.09961 17.8,17.8 0 0 0 -30.40039,-6.5 11.3,11.3 0 0 0 -9.19922,-5.19922 11.2,11.2 0 0 0 -5,1.09961 36.3,36.3 0 0 0 -8.40039,-15.09961 c 0.7,-0.6 1.4,-1.40078 2,-2.30078 a 11.2,11.2 0 0 0 1.70117,-5.69922 c 7.5,2.4 15.99844,-0.40039 20.39844,-7.40039 a 17.7,17.7 0 0 0 2.80078,-10.29883 19.8,19.8 0 0 0 22.80078,-8.10156 19.8,19.8 0 0 0 1.79883,-3.79883 24.8,24.8 0 0 0 3,2.19922 c 10.9,7 25.20078,4.2 32.80078,-6 z m -79.20117,76.5 v 0.20117 a 11.2,11.2 0 0 0 4.80078,1.19922 11.2,11.2 0 0 0 5.80078,-1.40039 c 1.8,7.7 8.59883,13.40117 16.79883,13.70117 a 17.7,17.7 0 0 0 10.30078,-3 19.8,19.8 0 0 0 18.69922,15.29883 19.8,19.8 0 0 0 4.20117,-0.40039 24.7,24.7 0 0 0 -0.30078,3.80078 24.5,24.5 0 0 0 22,25 27.3,27.3 0 0 0 12.09961,33.5 29.6,29.6 0 0 0 -6.19922,17.5 c -0.2,8.3 2.99883,15.80078 8.29883,21.30078 l -0.0996,-0.10156 c -10.3,5.3 -17.90039,15.40117 -19.40039,27.70117 a 35.5,35.5 0 0 0 3.30077,19.69922 c -15.4,0.5 -28.00039,13.00117 -28.40039,28.70117 v -0.60156 a 26.5,26.5 0 0 0 -9.69922,-2.09961 26.6,26.6 0 0 0 -26.30078,19.70117 24,24 0 0 0 -15.69922,-6.30078 24.1,24.1 0 0 0 -17.80078,7.19922 21,21 0 0 0 -17.69922,-10.5 21,21 0 0 0 -12.20117,3.60156 v -0.10156 a 0.7,0.7 0 0 0 0.10156,0 17.2,17.2 0 0 0 -3,-5.59961 29.7,29.7 0 0 0 17.69922,-29 27.1,27.1 0 0 0 14.69922,-2.90039 27.3,27.3 0 0 0 11.80078,-36.79883 v -0.0996 a 24.6,24.6 0 0 0 6,-2.20117 c 12.1,-6 16.79961,-20.9 10.59961,-33 a 24.5,24.5 0 0 0 -5.29883,-7 c 9.7,-5 13.59961,-16.89961 8.59961,-26.59961 a 19.7,19.7 0 0 0 -9.59961,-9 17.8,17.8 0 0 0 -8.80078,-29.80078 11.3,11.3 0 0 0 0.19922,-10.59961 11.2,11.2 0 0 0 -5.19922,-5 36.4,36.4 0 0 0 9.69922,-16 z m -25.79883,24.90039 a 11.2,11.2 0 0 0 1.29883,6.40039 11.2,11.2 0 0 0 4,4.40039 c -5.9,5.3 -7.7,13.99844 -4,21.39844 a 17.7,17.7 0 0 0 7.5,7.60156 c -6.5,5.8 -8.7,15.49922 -4.5,23.69922 a 19.7,19.7 0 0 0 2.40039,3.59961 24.6,24.6 0 0 0 -3.5,1.40039 c -11.4,5.9 -16.40039,19.60078 -11.40039,31.30078 a 27.3,27.3 0 0 0 -8.89844,2.79883 c -9.3,4.8 -14.70078,14.20039 -14.80078,23.90039 a 29.6,29.6 0 0 0 -18.30078,2.90039 29.6,29.6 0 0 0 -14.69922,17.40039 c -9.6,-6.6 -22.09961,-8.40078 -33.59961,-3.80078 a 35.5,35.5 0 0 0 -15.70117,12.30078 29.4,29.4 0 0 0 -38.29883,-11.5 26.5,26.5 0 0 0 -2.70117,-9.5 26.6,26.6 0 0 0 -29.999995,-13.80078 24,24 0 0 0 -2,-16.69922 c -3.1,-6.2 -8.59883,-10.40117 -14.79883,-12.20117 a 21,21 0 0 0 0.90039,-20.59961 21,21 0 0 0 -9,-9 17.4,17.4 0 0 0 2.19922,-2.80078 29.8,29.8 0 0 0 5.59961,4.60156 c 10.3,6.6 22.999995,5.99961 32.499995,-0.40039 a 27.1,27.1 0 0 0 10,11.19922 27.3,27.3 0 0 0 37.70117,-8.29883 v -0.10156 a 24.6,24.6 0 0 0 4.89844,4.10156 24.5,24.5 0 0 0 33.90039,-7.5 24.5,24.5 0 0 0 3.40039,-8.20117 19.8,19.8 0 0 0 27.30078,-6 19.7,19.7 0 0 0 3,-12.79883 17.8,17.8 0 0 0 21.19922,-22.60156 11.3,11.3 0 0 0 9.19922,-5.19922 11.2,11.2 0 0 0 1.60156,-7.90039 c 2.7,0.7 5.59961,1 8.59961,1 a 36.4,36.4 0 0 0 9,-1.09961 z" />
</svg>
