<?xml version="1.0" encoding="UTF-8" standalone="no"?>
<!-- Created with Inkscape (http://www.inkscape.org/) -->

<svg
   width="15.875mm"
   height="15.875mm"
   viewBox="0 0 15.875 15.875"
   version="1.1"
   id="svg5"
   inkscape:version="1.1 (c4e8f9ed74, 2021-05-24)"
   sodipodi:docname="kotlin.svg"
   xmlns:inkscape="http://www.inkscape.org/namespaces/inkscape"
   xmlns:sodipodi="http://sodipodi.sourceforge.net/DTD/sodipodi-0.dtd"
   xmlns="http://www.w3.org/2000/svg"
   xmlns:svg="http://www.w3.org/2000/svg">
  <sodipodi:namedview
     id="namedview7"
     pagecolor="#ffffff"
     bordercolor="#666666"
     borderopacity="1.0"
     inkscape:pageshadow="2"
     inkscape:pageopacity="0.0"
     inkscape:pagecheckerboard="0"
     inkscape:document-units="mm"
     showgrid="false"
     inkscape:zoom="3.4495877"
     inkscape:cx="27.829412"
     inkscape:cy="95.228771"
     inkscape:window-width="1094"
     inkscape:window-height="1015"
     inkscape:window-x="20"
     inkscape:window-y="20"
     inkscape:window-maximized="0"
     inkscape:current-layer="layer1"
     fit-margin-top="0"
     fit-margin-left="0"
     fit-margin-right="0"
     fit-margin-bottom="0" />
  <defs
     id="defs2">

		<linearGradient
   id="XMLID_3_"
   gradientUnits="userSpaceOnUse"
   x1="15.9594"
   y1="-13.0143"
   x2="44.306801"
   y2="15.3332"
   gradientTransform="matrix(1,0,0,-1,0,61)">
		<stop
   offset="9.677000e-02"
   style="stop-color:#0095D5"
   id="stop94" />

		<stop
   offset="0.3007"
   style="stop-color:#238AD9"
   id="stop96" />

		<stop
   offset="0.6211"
   style="stop-color:#557BDE"
   id="stop98" />

		<stop
   offset="0.8643"
   style="stop-color:#7472E2"
   id="stop100" />

		<stop
   offset="1"
   style="stop-color:#806EE3"
   id="stop102" />

	</linearGradient>

	

		<linearGradient
   id="SVGID_1_"
   gradientUnits="userSpaceOnUse"
   x1="4.2091999"
   y1="48.940899"
   x2="20.673401"
   y2="65.404999"
   gradientTransform="matrix(1,0,0,-1,0,61)">
		<stop
   offset="0.1183"
   style="stop-color:#0095D5"
   id="stop106" />

		<stop
   offset="0.4178"
   style="stop-color:#3C83DC"
   id="stop108" />

		<stop
   offset="0.6962"
   style="stop-color:#6D74E1"
   id="stop110" />

		<stop
   offset="0.8333"
   style="stop-color:#806EE3"
   id="stop112" />

	</linearGradient>

	

		<linearGradient
   id="SVGID_2_"
   gradientUnits="userSpaceOnUse"
   x1="-10.1017"
   y1="5.8362002"
   x2="45.731499"
   y2="61.669399"
   gradientTransform="matrix(1,0,0,-1,0,61)">
		<stop
   offset="0.1075"
   style="stop-color:#C757BC"
   id="stop117" />

		<stop
   offset="0.2138"
   style="stop-color:#D0609A"
   id="stop119" />

		<stop
   offset="0.4254"
   style="stop-color:#E1725C"
   id="stop121" />

		<stop
   offset="0.6048"
   style="stop-color:#EE7E2F"
   id="stop123" />

		<stop
   offset="0.743"
   style="stop-color:#F58613"
   id="stop125" />

		<stop
   offset="0.8232"
   style="stop-color:#F88909"
   id="stop127" />

	</linearGradient>

	
</defs>
  <g
     inkscape:label="Layer 1"
     inkscape:groupmode="layer"
     id="layer1"
     transform="translate(-14.345063,-63.813863)">
    <path
       id="XMLID_2_"
       style="fill:#000000"
       d="M 31.095703 30.904297 L 2 60 L 60 60 L 31.095703 30.904297 z M 2 60 L 2 58 L 0 60 L 2 60 z "
       transform="matrix(0.26458333,0,0,0.26458333,14.345063,63.813863)" />
    <path
       id="polygon115"
       style="fill:#000000"
       d="M 0 0 L 0 29.699219 L 28.201172 0 L 0 0 z "
       transform="matrix(0.26458333,0,0,0.26458333,14.345063,63.813863)" />
    <polygon
       style="fill:#000000;font-variation-settings:normal;opacity:1;vector-effect:none;fill-opacity:1;stroke-width:1;stroke-linecap:butt;stroke-linejoin:miter;stroke-miterlimit:4;stroke-dasharray:none;stroke-dashoffset:0;stroke-opacity:1;-inkscape-stroke:none;stop-color:#000000;stop-opacity:1"
       points="0,31.7 0,60 30.1,29.9 60,0 30.1,0 "
       id="polygon130"
       transform="matrix(0.26458333,0,0,0.26458333,14.345063,63.813863)" />
  </g>
</svg>
